<?xml version="1.0" encoding="utf-8"?>
<!-- Generator: Adobe Illustrator 16.0.0, SVG Export Plug-In . SVG Version: 6.00 Build 0)  -->
<!DOCTYPE svg PUBLIC "-//W3C//DTD SVG 1.1//EN" "http://www.w3.org/Graphics/SVG/1.1/DTD/svg11.dtd">
<svg version="1.1" id="randomness_x5F_nav_x5F_logo_x5F_1_xA0_Image_1_"
	 xmlns="http://www.w3.org/2000/svg" xmlns:xlink="http://www.w3.org/1999/xlink" x="0px" y="0px" width="275.966px"
	 height="274.966px" viewBox="0 0 275.966 274.966" enable-background="new 0 0 275.966 274.966" xml:space="preserve">
<g>
	<path fill-rule="evenodd" clip-rule="evenodd" fill="none" d="M0.343,0.428c92.655,0,185.311,0,277.965,0
		c0,92.321,0,184.644,0,276.966c-92.654,0-185.31,0-277.965,0C0.343,185.071,0.343,92.749,0.343,0.428z M179.292,110.346
		c1.303-1.719,2.598-3.422,3.89-5.128c9.16-12.095,12.228-25.924,9.877-40.574c-2.205-13.746-9.065-25.255-20.513-33.648
		c-13.368-9.802-28.393-13.052-44.388-9.462c-16.473,3.699-28.806,13.415-35.861,29.002c-4.382,9.68-5.934,19.788-4.235,30.536
		c1.609,10.183,5.458,19.074,12.111,26.823c2.521,2.936,2.613,2.896,0.11,6.084c-10.811,13.773-14.81,29.295-10.997,46.392
		c2.72,12.196,9.156,22.289,19.224,30.032c8.446,6.496,18.001,9.943,28.431,10.941c4.422,0.423,8.939,0.43,13.417-0.438
		c9.5-1.838,17.913-5.729,25.317-12.032c5.53-4.71,9.842-10.242,12.872-16.786c2.658-5.738,4.297-11.661,5.097-18.062
		c1.197-9.577-0.438-18.39-4.017-27.124C187.151,120.859,183.156,115.804,179.292,110.346z M163.495,238.514
		c0.813-11.853-9.468-23.041-23.474-23.137c-13.17-0.092-22.359,10.011-22.479,22.949c-0.124,13.482,9.799,23.094,22.252,23.098
		C153.913,261.428,164.206,250.239,163.495,238.514z"/>
	<path fill-rule="evenodd" clip-rule="evenodd" fill="#666666" d="M178.784,110.346c3.864,5.458,7.859,10.513,10.335,16.558
		c3.578,8.734,5.214,17.547,4.017,27.124c-0.8,6.4-2.438,12.324-5.097,18.063c-3.03,6.543-7.342,12.076-12.872,16.785
		c-7.404,6.305-15.817,10.195-25.317,12.033c-4.478,0.867-8.995,0.859-13.417,0.438c-10.429-0.998-19.984-4.445-28.431-10.941
		c-10.068-7.744-16.504-17.836-19.224-30.033c-3.813-17.096,0.186-32.618,10.997-46.392c2.503-3.189,2.411-3.149-0.11-6.084
		c-6.652-7.749-10.501-16.64-12.111-26.823c-1.699-10.749-0.146-20.856,4.235-30.536c7.056-15.588,19.389-25.304,35.861-29.002
		c15.995-3.59,31.02-0.34,44.388,9.462c11.447,8.393,18.308,19.902,20.513,33.648c2.351,14.65-0.717,28.479-9.877,40.574
		C181.382,106.924,180.087,108.627,178.784,110.346z M133.405,95.986c-1.419-1.47-2.547-1.746-3.856-2.631
		c-9.333-6.309-14.404-16.194-10.763-27.148c2.695-8.106,8.45-13.309,17.1-14.905c3.537-0.652,4.02,0.285,3.828-4.52
		c0.038-7.484,0.014-14.969-0.01-22.453c-0.002-0.802,0.01-1.484-0.021-2.453c-15.617-1.724-40.924,9.899-49.167,35.388
		c-6.204,19.179,0.368,42.829,13.664,52.027C112.55,102.155,122.036,97.161,133.405,95.986z M176.644,112.41
		c-2.724,2.642-5.679,4.486-8.527,6.493c-4.387,3.092-5.66,3.625-7.156,4.275c-1.19,0.517-3.111,2.152-9.68,3.812
		c6.852,4.148,11.979,13.688,12.438,22.063c-0.708,11.792-11.333,21.267-23.516,23c0.091,11.695-0.135,12.338,0.466,27.375
		c20.017-0.555,41.237-12.865,48.34-33.232C196.326,145.207,188.955,121.385,176.644,112.41z M140.637,126.461
		c-11.264-0.581-22.612,8.928-22.334,21.878c0.318,14.908,12.095,22.146,21.201,21.977c12.465-0.232,23.198-11.355,22.487-22.967
		C161.318,136.379,150.486,126.062,140.637,126.461z M140.132,95.346c11.707,0.454,21.844-8.935,22.344-21.984
		c0.421-10.971-10.183-21.988-20.475-21.772c-14.798,0.312-23.214,11.889-23.275,22.256
		C118.66,85.044,131.249,95.753,140.132,95.346z"/>
	<path fill-rule="evenodd" clip-rule="evenodd" fill="#666666" d="M163.495,238.514c0.711,11.726-9.582,22.914-23.7,22.91
		c-12.453-0.004-22.376-9.615-22.252-23.098c0.119-12.938,9.309-23.041,22.479-22.949
		C154.027,215.473,164.308,226.661,163.495,238.514z M140.166,260.038c0.043-14.398,0.058-28.771-0.014-43.154
		c-11.906,0.22-20.479,9.658-20.953,20.19C118.585,250.675,128.51,259.495,140.166,260.038z"/>
	<path fill-rule="evenodd" clip-rule="evenodd" fill="none" d="M133.913,95.986c-11.369,1.175-20.855,6.168-29.226,13.304
		c-13.296-9.198-19.868-32.848-13.664-52.027c8.243-25.489,33.562-37.06,49.179-35.335c0.258,0.817,0.008,1.599,0.01,2.4
		c0.023,7.484,0.048,14.969,0.01,22.453c-0.018,3.578,0.893,4.021-3.828,4.52c-8.747,0.924-14.405,6.799-17.1,14.905
		c-3.641,10.954,0.807,21.877,10.763,27.148C131.323,94.024,132.9,94.263,133.913,95.986z"/>
	<path fill-rule="evenodd" clip-rule="evenodd" fill="none" d="M177.151,112.41c10.5,6.5,19.683,32.797,12.364,53.785
		c-7.103,20.368-26.447,33.242-46.464,33.798c-1.018-3.02-1.307-16.843-0.547-28.026c12.963-2.163,20.679-9.752,22.171-22.701
		c-0.743-9.781-0.36-11.826-11.458-22.829c6.125-1.758,7.899-3.521,9.777-4.362c3.165-1.419,4.763-2.536,7.676-4.589
		C173.52,115.478,174.428,115.051,177.151,112.41z"/>
	<path fill-rule="evenodd" clip-rule="evenodd" fill="none" d="M141.145,126.461c9.85-0.399,20.682,9.917,21.354,20.888
		c0.711,11.611-10.022,22.735-22.487,22.968c-9.105,0.17-20.883-7.068-21.201-21.977C118.533,135.389,129.88,125.88,141.145,126.461
		z"/>
	<path fill-rule="evenodd" clip-rule="evenodd" fill="none" d="M140.64,95.346c-8.883,0.407-21.472-10.302-21.406-21.5
		c0.061-10.367,8.477-21.944,23.275-22.256c10.292-0.216,20.896,10.801,20.475,21.772C162.483,86.411,152.347,95.799,140.64,95.346z
		"/>
	<path fill-rule="evenodd" clip-rule="evenodd" fill="none" d="M140.166,260.038c-11.656-0.543-21.581-9.363-20.967-22.964
		c0.475-10.532,9.047-19.971,20.953-20.19C140.224,231.268,140.209,245.64,140.166,260.038z"/>
</g>
</svg>
